A High-Performance Database of Shipment-Level CITES Trade Data • rOpenSci: citesdb
…
Using the database

Once you fetch the data, you can connect to the database with the cites_db() command. The cites_shipments() command loads a remote tibble that is backed by the database but is not loaded into R. You can use this command to analyze CITES data without ever loading it into memory, gathering your results with the dplyr function collect(). For example:

library(citesdb)
library(dplyr)

start <- Sys.time()

cites_shipments() %>%
  group_by(Year) %>%
  summarize(n_records = n()) %>%
  arrange(desc(Year)) %>%
  collect()
#> # A tibble: 44 x 2
#>     Year n_records
#>    <int>     <dbl>
#>  1  2018      1326
#>  2  2017   1015719
#>  3  2016   1262632
#>  4  2015   1296532
#>  5  2014   1109872
#>  6  2013   1127363
#>  7  2012   1096645
#>  8  2011    950144
#>  9  2010    894011
#> 10  2009    908669
#> # … with 34 more rows
…
