Exploring CITES Trade Data with citesdb • rOpenSci: citesdb
…
cites_shipments() %>%
  group_by(Year) %>%
  summarize(n_records = n()) %>%
  arrange(desc(Year)) %>%
  collect()
#> # A tibble: 44 x 2
#>     Year n_records
#>    <int>     <dbl>
#>  1  2018      1326
#>  2  2017   1015719
#>  3  2016   1262632
#>  4  2015   1296532
#>  5  2014   1109872
#>  6  2013   1127363
#>  7  2012   1096645
#>  8  2011    950144
#>  9  2010    894011
#> 10  2009    908669
#> # … with 34 more rows
…
Here, we see that the species was in fact listed under CITES Appendix III as early as 29 October 2001. This may account for the CITES trade records for this species that date prior to its uplisting to Appendix II, a status which affords more stringent protection and monitoring.

In general, the historical listing information provides critical context for CITES data interpretation. In this case, for instance, it is clear that the lack of CITES data for great white sharks prior to the year 2002 should not be taken as an indication of a lack of trade in this species during that time frame but rather a lack of intergovernmental oversight and data collection.

rcites also offers functions that return other useful metadata such as species distribution information:

spp_distributions(great_white_id)$distributions

#> # A tibble: 96 x 5
#>    id    iso_code2 name                      type      tags 
#>    <chr> <chr>     <chr>                     <chr>     <chr>
#>  1 14    BS        Bahamas                   COUNTRY   ""   
#>  2 101   TW        Taiwan, Province of China TERRITORY ""   
#>  3 1315  TR        Turkey                    COUNTRY   ""   
#>  4 1704  GH        Ghana                     COUNTRY   ""   
#>  5 5041  CV        Cabo Verde                COUNTRY   ""   
#>  6 5393  HR        Croatia                   COUNTRY   ""   
#>  7 6460  GA        Gabon                     COUNTRY   ""   
#>  8 8056  MA        Morocco                   COUNTRY   ""   
#>  9 8181  ES        Spain                     COUNTRY   ""   
#> 10 8286  SD        Sudan                     COUNTRY   ""   
#> # … with 86 more rows
…
